module ongoing/x/dude

go 1.23.2

require (
	github.com/prometheus-community/pro-bing v0.4.1
	github.com/prometheus/client_golang v1.20.5
)

require (
	github.com/beorn7/perks v1.0.1 // indirect
	github.com/cespare/xxhash/v2 v2.3.0 // indirect
	github.com/google/uuid v1.6.0 // indirect
	github.com/klauspost/compress v1.17.9 // indirect
	github.com/munnerz/goautoneg v0.0.0-20191010083416-a7dc8b61c822 // indirect
	github.com/prometheus/client_model v0.6.1 // indirect
	github.com/prometheus/common v0.55.0 // indirect
	github.com/prometheus/procfs v0.15.1 // indirect
	golang.org/x/net v0.27.0 // indirect
	golang.org/x/sync v0.7.0 // indirect
	golang.org/x/sys v0.22.0 // indirect
	google.golang.org/protobuf v1.34.2 // indirect
)
